// Jest Snapshot v1, https://goo.gl/fbAQLP

exports[`Button Atom renders correctly 1`] = `
<View
  accessibilityComponentType={undefined}
  accessibilityLabel={undefined}
  accessibilityTraits={undefined}
  accessible={true}
  hitSlop={undefined}
  onLayout={undefined}
  onResponderGrant={[Function]}
  onResponderMove={[Function]}
  onResponderRelease={[Function]}
  onResponderTerminate={[Function]}
  onResponderTerminationRequest={[Function]}
  onStartShouldSetResponder={[Function]}
  style={
    Array [
      Object {
        "alignItems": "center",
        "flexDirection": "row",
        "justifyContent": "center",
        "marginBottom": 6,
        "marginLeft": 3,
        "marginRight": 3,
        "marginTop": 6,
        "paddingBottom": 4,
        "paddingRight": 4,
      },
      undefined,
    ]
  }
  testID={undefined}
>
  <Text
    accessible={true}
    allowFontScaling={true}
    ellipsizeMode="tail"
    style={
      Object {
        "backgroundColor": "#1F201E",
        "borderRadius": 4,
        "color": "#F5FCFF",
        "flexBasis": 0,
        "flexGrow": 1,
        "flexShrink": 1,
        "fontSize": 18,
        "fontWeight": "bold",
        "paddingBottom": 8,
        "paddingLeft": 8,
        "paddingRight": 8,
        "paddingTop": 8,
        "textAlign": "center",
        "transform": Array [
          Object {
            "translateX": 0,
          },
          Object {
            "translateY": 0,
          },
        ],
      }
    }
  >
    Test Button
  </Text>
  <View
    style={
      Array [
        Object {
          "borderColor": "#1F201E",
          "borderRadius": 4,
          "borderStyle": "solid",
          "borderWidth": 1,
          "bottom": 0,
          "flexBasis": 0,
          "flexGrow": 1,
          "flexShrink": 1,
          "left": 4,
          "position": "absolute",
          "right": 0,
          "top": 4,
        },
        undefined,
      ]
    }
  />
</View>
`;
